# =======================================================================================
#  
#      Filename:  perfmon_haswell_events.txt
# 
#      Description:  Event list for Intel Ivy Bridge
# 
#      Version:   <VERSION>
#      Released:  <DATE>
# 
#      Author:  Jan Treibig (jt), jan.treibig@gmail.com
#      Project:  likwid
#
#      Copyright (C) 2014 Jan Treibig
#
#      This program is free software: you can redistribute it and/or modify it under
#      the terms of the GNU General Public License as published by the Free Software
#      Foundation, either version 3 of the License, or (at your option) any later
#      version.
#
#      This program is distributed in the hope that it will be useful, but WITHOUT ANY
#      WARRANTY; without even the implied warranty of MERCHANTABILITY or FITNESS FOR A
#      PARTICULAR PURPOSE.  See the GNU General Public License for more details.
#
#      You should have received a copy of the GNU General Public License along with
#      this program.  If not, see <http://www.gnu.org/licenses/>.
#
# =======================================================================================

EVENT_TEMP_CORE          0x00   TMP0
UMASK_TEMP_CORE          0x00

EVENT_PWR_PKG_ENERGY          0x00   PWR0
UMASK_PWR_PKG_ENERGY          0x00

EVENT_PWR_PP0_ENERGY          0x00   PWR1
UMASK_PWR_PP0_ENERGY          0x00

EVENT_PWR_PP1_ENERGY          0x00   PWR2
UMASK_PWR_PP1_ENERGY          0x00

EVENT_PWR_DRAM_ENERGY          0x00   PWR3
UMASK_PWR_DRAM_ENERGY          0x00

EVENT_INSTR_RETIRED              0x00   FIXC0
UMASK_INSTR_RETIRED_ANY          0x00

EVENT_CPU_CLK_UNHALTED           0x00   FIXC1
UMASK_CPU_CLK_UNHALTED_CORE      0x00

EVENT_CPU_CLK_UNHALTED           0x00   FIXC2
UMASK_CPU_CLK_UNHALTED_REF       0x00

EVENT_LD_BLOCKS                 0x03  PMC
UMASK_LD_BLOCKS_STORE_FORWARD   0x02
UMASK_LD_BLOCKS_NO_SR           0x08

EVENT_MISALIGN_MEM_REF           0x05  PMC
UMASK_MISALIGN_MEM_REF_LOADS      0x01
UMASK_MISALIGN_MEM_REF_STORES     0x02
UMASK_MISALIGN_MEM_REF_ANY        0x03

EVENT_LD_BLOCKS_PARTIAL      0x07  PMC
UMASK_LD_BLOCKS_PARTIAL_ADDRESS_ALIAS   0x01

EVENT_DTLB_LOAD_MISSES                 0x08  PMC
UMASK_DTLB_LOAD_MISSES_CAUSES_A_WALK         0x01
UMASK_DTLB_LOAD_MISSES_WALK_COMPLETED_4K     0x02
UMASK_DTLB_LOAD_MISSES_WALK_COMPLETED_LARGE  0x04
UMASK_DTLB_LOAD_MISSES_WALK_COMPLETED        0x0E
UMASK_DTLB_LOAD_MISSES_WALK_DURATION         0x10
UMASK_DTLB_LOAD_MISSES_STLB_HIT_4K           0x20
UMASK_DTLB_LOAD_MISSES_STLB_HIT_2M           0x40
UMASK_DTLB_LOAD_MISSES_STLB_HIT              0x60
UMASK_DTLB_LOAD_MISSES_PDE_CACHE_MISS        0x80

EVENT_INT_MISC            0x0D  PMC
UMASK_INT_MISC_RECOVERY_CYCLES  0x03 0x01

EVENT_UOPS_ISSUED                0x0E  PMC
UMASK_UOPS_ISSUED_ANY            0x01
UMASK_UOPS_ISSUED_FLAGS_MERGE    0x10
UMASK_UOPS_ISSUED_SLOW_LEA       0x20
UMASK_UOPS_ISSUED_SINGLE_MUL     0x40

EVENT_L2_RQSTS                   0x24   PMC
UMASK_L2_RQSTS_ALL_DEMAND_DATA_RD_MISS 0x21
UMASK_L2_RQSTS_ALL_DEMAND_DATA_RD_HIT 0x41
UMASK_L2_RQSTS_ALL_DEMAND_DATA_RD     0xE1
UMASK_L2_RQSTS_RFO_HIT           0x42
UMASK_L2_RQSTS_RFO_MISS          0x22
UMASK_L2_RQSTS_ALL_RFO           0xE2
UMASK_L2_RQSTS_CODE_RD_HIT        0x44
UMASK_L2_RQSTS_CODE_RD_MISS       0x24
UMASK_L2_RQSTS_ALL_DEMAND_MISS   0x27
UMASK_L2_RQSTS_ALL_DEMAND_REFERENCES   0xE7
UMASK_L2_RQSTS_ALL_CODE_RD   0xE4
UMASK_L2_RQSTS_L2_PF_HIT      0x50
UMASK_L2_RQSTS_L2_PF_MISS     0x30
UMASK_L2_RQSTS_ALL_PF        0xF8
UMASK_L2_RQSTS_MISS              0x3F
UMASK_L2_RQSTS_REFERENCES        0xFF

EVENT_L2_DEMAND_RQST_WB_HIT            0x27   PMC
UMASK_L2_DEMAND_RQST_WB_HIT       0x50

EVENT_LONGEST_LAT_CACHE_REFERENCE               0x2E   PMC
UMASK_LONGEST_LAT_CACHE_REFERENCE     0x4F
UMASK_LONGEST_LAT_CACHE_MISS          0x41

EVENT_CPU_CLOCK_UNHALTED         0x3C   PMC
UMASK_CPU_CLOCK_UNHALTED_THREAD_P  0x00
UMASK_CPU_CLOCK_UNHALTED_REF_XCLK     0x01

EVENT_L1D_PEND_MISS              0x48   PMC1
UMASK_L1D_PEND_MISS_PENDING      0x01

EVENT_DTLB_STORE_MISSES                0x49   PMC
UMASK_DTLB_STORE_MISSES_MISS_CAUSES_A_WALK   0x01
UMASK_DTLB_STORE_MISSES_WALK_COMPLETED_4K       0x02
UMASK_DTLB_STORE_MISSES_WALK_COMPLETED_LARGE    0x04
UMASK_DTLB_STORE_MISSES_WALK_COMPLETED          0x0E
UMASK_DTLB_STORE_MISSES_WALK_DURATION       0x10
UMASK_DTLB_STORE_MISSES_STLB_HIT_4K             0x20
UMASK_DTLB_STORE_MISSES_STLB_HIT_LARGE             0x40
UMASK_DTLB_STORE_MISSES_STLB_HIT              0x60
UMASK_DTLB_STORE_MISSES_PDE_CACHE_MISS              0x80

EVENT_LOAD_HIT_PRE               0x4C    PMC
UMASK_LOAD_HIT_PRE_SW_PF               0x01
UMASK_LOAD_HIT_PRE_HW_PF               0x02

EVENT_L1D                        0x51   PMC
UMASK_L1D_REPLACEMENT             0x01
UMASK_L1D_ALLOCATED_IN_M          0x02
UMASK_L1D_M_EVICT                 0x04
UMASK_L1D_ALL_M_REPLACEMENT       0x08

EVENT_MOVE_ELIMINATION                        0x58   PMC
UMASK_MOVE_ELIMINATION_INT_NOT_ELIMINATED     0x04
UMASK_MOVE_ELIMINATION_SIMD_NOT_ELIMINATED    0x08
UMASK_MOVE_ELIMINATION_INT_ELIMINATED         0x01
UMASK_MOVE_ELIMINATION_SIMD_ELIMINATED        0x02

EVENT_CPL_CYCLES               0x5C    PMC
UMASK_CPL_CYCLES_RING0             0x01
UMASK_CPL_CYCLES_RING123             0x02

EVENT_RS_EVENTS               0x5E    PMC
UMASK_RS_EVENTS_EMPTY_CYCLES    0x01

EVENT_OFFCORE_REQUESTS_OUTSTANDING          0x60   PMC
UMASK_OFFCORE_REQUESTS_OUTSTANDING_DEMAND_DATA_RD   0x01
UMASK_OFFCORE_REQUESTS_OUTSTANDING_DEMAND_CODE_RD   0x02
UMASK_OFFCORE_REQUESTS_OUTSTANDING_DEMAND_RFO   0x04
UMASK_OFFCORE_REQUESTS_OUTSTANDING_ALL_DATA_RD   0x08

EVENT_CACHE_LOCK_CYCLES          0x63   PMC
UMASK_CACHE_LOCK_CYCLES_SPLIT_LOCK_UC_LOCK_DURATION      0x01
UMASK_CACHE_LOCK_CYCLES_CACHE_LOCK_DURATION       0x02

EVENT_IDQ               0x79   PMC
UMASK_IDQ_EMPTY         0x02
UMASK_IDQ_MITE_UOPS     0x04
UMASK_IDQ_MITE_UOPS_CYCLES  0x04 0x00 0x01
UMASK_IDQ_DSB_UOPS      0x08
UMASK_IDQ_DSB_UOPS_CYCLES  0x08 0x00 0x01
UMASK_IDQ_MS_DSB_UOPS   0x10
UMASK_IDQ_MS_DSB_UOPS_CYCLES  0x10 0x00 0x01
UMASK_IDQ_MS_MITE_UOPS  0x20
UMASK_IDQ_MS_MITE_UOPS_CYCLES  0x20 0x00 0x01
UMASK_IDQ_MS_UOPS       0x30
UMASK_IDQ_MS_UOPS_CYCLES  0x30 0x00 0x01
UMASK_IDQ_ALL_DSB_CYCLES_ANY_UOPS      0x18 0x00 0x01
UMASK_IDQ_ALL_DSB_CYCLES_ANY_UOPS      0x18 0x00 0x01
UMASK_IDQ_ALL_DSB_CYCLES_4_UOPS        0x18 0x00 0x04
UMASK_IDQ_ALL_MITE_CYCLES_ANY_UOPS       0x24 0x00 0x01
UMASK_IDQ_ALL_MITE_CYCLES_4_UOPS       0x24 0x00 0x04
UMASK_IDQ_MITE_ALL_UOPS       0x3C

EVENT_ICACHE                  0x80   PMC
UMASK_ICACHE_HITS             0x01
UMASK_ICACHE_MISSES             0x02
UMASK_ICACHE_ACCESSES           0x03
UMASK_ICACHE_IFETCH_STALL       0x04

EVENT_ITLB_MISSES                 0x85      PMC
UMASK_ITLB_MISSES_CAUSES_A_WALK   0x01
UMASK_ITLB_MISSES_WALK_COMPLETED_4K  0x02
UMASK_ITLB_MISSES_WALK_COMPLETED_LARGE  0x04
UMASK_ITLB_MISSES_WALK_COMPLETED     0x0E
UMASK_ITLB_MISSES_WALK_DURATION   0x10
UMASK_ITLB_MISSES_STLB_HIT_4K   0x20
UMASK_ITLB_MISSES_STLB_HIT_2M   0x40
UMASK_ITLB_MISSES_STLB_HIT   0x60

EVENT_ILD_STALL                 0x87      PMC
UMASK_ILD_STALL_LCP             0x01
UMASK_ILD_STALL_IQ_FULL         0x04

EVENT_BR_INST_EXEC                                      0x88   PMC
UMASK_BR_INST_EXEC_COND_TAKEN                           0x81
UMASK_BR_INST_EXEC_COND_NON_TAKEN                       0x41
UMASK_BR_INST_EXEC_DIRECT_JMP_TAKEN                     0x82
UMASK_BR_INST_EXEC_INDIRECT_JMP_NON_CALL_RET_TAKEN      0x84
UMASK_BR_INST_EXEC_RETURN_NEAR_TAKEN                    0x88
UMASK_BR_INST_EXEC_DIRECT_NEAR_CALL_TAKEN               0x90
UMASK_BR_INST_EXEC_INDIRECT_NEAR_CALL_TAKEN             0xA0
UMASK_BR_INST_EXEC_ALL_BRANCHES                         0xFF

EVENT_BR_MISP_EXEC                                      0x89   PMC
UMASK_BR_MISP_EXEC_COND_TAKEN                           0x81
UMASK_BR_MISP_EXEC_COND_NON_TAKEN                       0x41
UMASK_BR_MISP_EXEC_INDIRECT_JMP_NON_CALL_RET_TAKEN      0x84
UMASK_BR_MISP_EXEC_RETURN_NEAR_TAKEN                    0x88
UMASK_BR_MISP_EXEC_DIRECT_NEAR_CALL_TAKEN               0x90
UMASK_BR_MISP_EXEC_INDIRECT_NEAR_CALL_TAKEN             0xA0
UMASK_BR_MISP_EXEC_ALL_BRANCHES                         0xFF

EVENT_IDQ_UOPS_NOT_DELIVERED                    0x9C   PMC
UMASK_IDQ_UOPS_NOT_DELIVERED_CORE               0x01

EVENT_UOPS_EXECUTED_PORT                 0xA1   PMC
UMASK_UOPS_EXECUTED_PORT_PORT_0           0x01
UMASK_UOPS_EXECUTED_PORT_PORT_1           0x02
UMASK_UOPS_EXECUTED_PORT_PORT_2           0x04
UMASK_UOPS_EXECUTED_PORT_PORT_3           0x08
UMASK_UOPS_EXECUTED_PORT_PORT_4           0x10
UMASK_UOPS_EXECUTED_PORT_PORT_5           0x20
UMASK_UOPS_EXECUTED_PORT_PORT_6           0x40
UMASK_UOPS_EXECUTED_PORT_PORT_7           0x80

EVENT_RESOURCE_STALLS                 0xA2   PMC
UMASK_RESOURCE_STALLS_ANY             0x01
UMASK_RESOURCE_STALLS_RS              0x04
UMASK_RESOURCE_STALLS_SB               0x08
UMASK_RESOURCE_STALLS_ROB             0x10

EVENT_CYCLE_ACTIVITY                 0xA3   PMC
UMASK_CYCLE_ACTIVITY_CYCLES_L2_PENDING             0x01
UMASK_CYCLE_ACTIVITY_CYCLES_L2_PENDING_CYCLES      0x01 0x00 0x02
UMASK_CYCLE_ACTIVITY_CYCLES_LDM_PENDING              0x02
UMASK_CYCLE_ACTIVITY_CYCLES_LDM_PENDING_CYCLES      0x01 0x00 0x02
UMASK_CYCLE_ACTIVITY_STALLS_L2_PENDING            0x05

EVENT_CYCLE_ACTIVITY_CYCLES                 0xA3   PMC2
UMASK_CYCLE_ACTIVITY_CYCLES_L1D_PENDING               0x08
UMASK_CYCLE_ACTIVITY_CYCLES_L1D_PENDING_CYCLES        0x08 0x00 0x08

EVENT_CYCLE_ACTIVITY_STALLS                 0xA3   PMC2
UMASK_CYCLE_ACTIVITY_STALLS_L1D_PENDING               0x0C
UMASK_CYCLE_ACTIVITY_STALLS_L1D_PENDING_CYCLES        0x0C 0x00 0x0C

EVENT_LSD_UOPS                 0xA8   PMC
UMASK_LSD_UOPS             0x01

EVENT_ITLB                         0xAE   PMC
UMASK_ITLB_ITLB_FLUSH            0x01

EVENT_OFFCORE_REQUESTS     0xB0   PMC
UMASK_OFFCORE_REQUESTS_DEMAND_DATA_RD   0x01
UMASK_OFFCORE_REQUESTS_DEMAND_CODE_RD   0x02
UMASK_OFFCORE_REQUESTS_DEMAND_RFO       0x04
UMASK_OFFCORE_REQUESTS_ALL_DATA_RD      0x08

EVENT_UOPS_EXECUTED               0xB1   PMC
UMASK_UOPS_EXECUTED_CORE              0x02

EVENT_PAGE_WALKER_LOADS          0xBC  PMC
UMASK_PAGE_WALKER_LOADS_DTLB_L1     0x11
UMASK_PAGE_WALKER_LOADS_ITLB_L1     0x21
UMASK_PAGE_WALKER_LOADS_DTLB_L2     0x12
UMASK_PAGE_WALKER_LOADS_ITLB_L2     0x22
UMASK_PAGE_WALKER_LOADS_DTLB_L3     0x14
UMASK_PAGE_WALKER_LOADS_ITLB_L3     0x24
UMASK_PAGE_WALKER_LOADS_DTLB_MEMORY     0x18
UMASK_PAGE_WALKER_LOADS_ITLB_MEMORY     0x28

EVENT_TLB_FLUSH          0xBD  PMC
UMASK_TLB_FLUSH_DTLB_THREAD     0x01
UMASK_TLB_FLUSH_STLB_ANY        0x20

EVENT_INST_RETIRED                  0xC0  PMC1
UMASK_INST_RETIRED_ANY_P            0x00

EVENT_OTHER_ASSISTS                  0xC1  PMC
UMASK_OTHER_ASSISTS_AVX_TO_SSE            0x08
UMASK_OTHER_ASSISTS_SSE_TO_AVX            0x10
UMASK_OTHER_ASSISTS_ANY_WB_ASSIST         0x40

EVENT_UOPS_RETIRED                  0xC2  PMC
UMASK_UOPS_RETIRED_ALL              0x01
UMASK_UOPS_RETIRED_RETIRE_SLOTS     0x02

EVENT_MACHINE_CLEARS              0xC3  PMC
UMASK_MACHINE_CLEARS_MEMORY_ORDERING    0x02
UMASK_MACHINE_CLEARS_SMC                0x04
UMASK_MACHINE_CLEARS_MASKMOV            0x20

EVENT_BR_INST_RETIRED               0xC4  PMC
UMASK_BR_INST_RETIRED_ALL_BRANCHES  0x00
UMASK_BR_INST_RETIRED_CONDITIONAL   0x01
UMASK_BR_INST_RETIRED_NEAR_CALL     0x02
UMASK_BR_INST_RETIRED_ALL_BRANCHES  0x04
UMASK_BR_INST_RETIRED_NEAR_RETURN   0x08
UMASK_BR_INST_RETIRED_NOT_TAKEN     0x10
UMASK_BR_INST_RETIRED_NEAR_TAKEN    0x20
UMASK_BR_INST_RETIRED_FAR_BRANCH    0x40

EVENT_BR_MISP_RETIRED               0xC5  PMC
UMASK_BR_MISP_RETIRED_ALL_BRANCHES_1  0x00
UMASK_BR_MISP_RETIRED_CONDITIONAL  0x01
UMASK_BR_MISP_RETIRED_ALL_BRANCHES_2     0x04
UMASK_BR_MISP_RETIRED_NEAR_NOT_TAKEN      0x10
UMASK_BR_MISP_RETIRED_NEAR_TAKEN      0x20

EVENT_FP_ASSIST               0xCA  PMC
UMASK_FP_ASSIST_X87_OUTPUT               0x02
UMASK_FP_ASSIST_X87_INPUT                0x04
UMASK_FP_ASSIST_SIMD_OUTPUT               0x08
UMASK_FP_ASSIST_SIMD_INPUT               0x10
UMASK_FP_ASSIST_ANY               0x1E

EVENT_ROB_MISC_EVENT_LBR_INSERTS               0xCC  PMC
UMASK_ROB_MISC_EVENT_LBR_INSERTS               0x20

EVENT_MEM_TRANS_RETIRED_LOAD_LAT               0xCD  PMC
UMASK_MEM_TRANS_RETIRED_LOAD_LATENCY           0x01

EVENT_MEM_UOP_RETIRED            0xD0    PMC
UMASK_MEM_UOP_RETIRED_LOADS            0x81
UMASK_MEM_UOP_RETIRED_STORES           0x82
UMASK_MEM_UOP_RETIRED_LOADS_STLB_MISS         0x11
UMASK_MEM_UOP_RETIRED_STORES_STLB_MISS        0x12
UMASK_MEM_UOP_RETIRED_LOADS_LOCK              0x21
UMASK_MEM_UOP_RETIRED_STORES_LOCK             0x22
UMASK_MEM_UOP_RETIRED_LOADS_SPLIT             0x41
UMASK_MEM_UOP_RETIRED_STORES_SPLIT            0x42

EVENT_MEM_LOAD_UOPS_RETIRED               0xD1   PMC
UMASK_MEM_LOAD_UOPS_RETIRED_L1_HIT       0x01
UMASK_MEM_LOAD_UOPS_RETIRED_L1_MISS      0x08
UMASK_MEM_LOAD_UOPS_RETIRED_L1_ALL       0x09
UMASK_MEM_LOAD_UOPS_RETIRED_L2_HIT       0x02
UMASK_MEM_LOAD_UOPS_RETIRED_L2_MISS      0x10
UMASK_MEM_LOAD_UOPS_RETIRED_L2_ALL       0x12
UMASK_MEM_LOAD_UOPS_RETIRED_L3_HIT       0x04
UMASK_MEM_LOAD_UOPS_RETIRED_L3_MISS      0x20
UMASK_MEM_LOAD_UOPS_RETIRED_L3_ALL       0x24
UMASK_MEM_LOAD_UOPS_RETIRED_HIT_LFB      0x40

EVENT_MEM_LOAD_UOPS_L3_HIT_RETIRED               0xD2   PMC
UMASK_MEM_LOAD_UOPS_L3_HIT_RETIRED_XSNP_MISS         0x01
UMASK_MEM_LOAD_UOPS_L3_HIT_RETIRED_XSNP_HIT          0x02
UMASK_MEM_LOAD_UOPS_L3_HIT_RETIRED_XSNP_HITM         0x04
UMASK_MEM_LOAD_UOPS_L3_HIT_RETIRED_XSNP_NONE         0x08

EVENT_MEM_LOAD_UOPS_LLC_MISS_RETIRED               0xD3   PMC
UMASK_MEM_LOAD_UOPS_LLC_MISS_RETIRED_LOCAL_DRAM      0x01

EVENT_BACLEARS               0xE6   PMC
UMASK_BACLEARS_ANY           0x1F

EVENT_L2_TRANS               0xF0  PMC
UMASK_L2_TRANS_DEMAND_DATA_RD          0x01
UMASK_L2_TRANS_RFO           0x02
UMASK_L2_TRANS_CODE_RD       0x04
UMASK_L2_TRANS_ALL_PREF      0x08
UMASK_L2_TRANS_L1D_WB        0x10
UMASK_L2_TRANS_L2_FILL       0x20
UMASK_L2_TRANS_L2_WB         0x40
UMASK_L2_TRANS_ALL_REQUESTS  0x80

EVENT_L2_LINES_IN                   0xF1   PMC
UMASK_L2_LINES_IN_I           0x01
UMASK_L2_LINES_IN_S            0x02
UMASK_L2_LINES_IN_E           0x04
UMASK_L2_LINES_IN_ALL               0x07

EVENT_L2_LINES_OUT                  0xF2   PMC
UMASK_L2_LINES_OUT_DEMAND_CLEAN     0x05
UMASK_L2_LINES_OUT_DEMAND_DIRTY     0x06

EVENT_TX_MEM_ABORT_CONFLICT          0x54   PMC
UMASK_TX_MEM_ABORT_CONFLICT     0x01
UMASK_TX_MEM_ABORT_CAPACITY     0x02
UMASK_TX_MEM_ABORT_HLE_STORE_TO_ELIDED_LOCK     0x04
UMASK_TX_MEM_ABORT_HLE_ELISION_BUFFER_NOT_EMPTY     0x08
UMASK_TX_MEM_ABORT_HLE_ELISION_BUFFER_MISMATCH     0x10
UMASK_TX_MEM_ABORT_HLE_ELISION_BUFFER_UNSUPP_ALIGNMENT     0x20
UMASK_TX_MEM_ABORT_HLE_ELISION_BUFFER_FULL     0x40

EVENT_TX_EXEC          0x5D   PMC
UMASK_TX_EXEC_MISC1     0x01
UMASK_TX_EXEC_MISC2     0x02
UMASK_TX_EXEC_MISC3     0x04
UMASK_TX_EXEC_MISC4     0x08
UMASK_TX_EXEC_MISC5     0x10


EVENT_HLE_RETIRED                  0xC8   PMC
UMASK_HLE_RETIRED_START            0x01
UMASK_HLE_RETIRED_COMMIT           0x02
UMASK_HLE_RETIRED_ABORTED           0x04
UMASK_HLE_RETIRED_ABORTED_MISC1     0x08
UMASK_HLE_RETIRED_ABORTED_MISC2     0x10
UMASK_HLE_RETIRED_ABORTED_MISC3     0x20
UMASK_HLE_RETIRED_ABORTED_MISC4     0x40
UMASK_HLE_RETIRED_ABORTED_MISC5     0x80

EVENT_RTM_RETIRED                  0xC9   PMC
UMASK_RTM_RETIRED_START            0x01
UMASK_RTM_RETIRED_COMMIT           0x02
UMASK_RTM_RETIRED_ABORTED           0x04
UMASK_RTM_RETIRED_ABORTED_MISC1     0x08
UMASK_RTM_RETIRED_ABORTED_MISC2     0x10
UMASK_RTM_RETIRED_ABORTED_MISC3     0x20
UMASK_RTM_RETIRED_ABORTED_MISC4     0x40
UMASK_RTM_RETIRED_ABORTED_MISC5     0x80
